{
    "ueberschrift": "Responsiv mit Grid Layout Desktop-First ",
    "aufgabe": ["Implementieren Sie ausschließlich mit HTML und CSS das gleiche responsive Webdesign aus Aufgabe 3.1, diesmal jedoch Grid Layout Desktop-First."],
    "loesung": [""]
}